<svg width="18" height="21" viewBox="0 0 18 21" fill="none" xmlns="http://www.w3.org/2000/svg">
<path fill-rule="evenodd" clip-rule="evenodd" d="M9.27905 0.012227C11.5391 0.022227 13.6991 0.922227 15.2791 2.50223C16.8691 4.09223 17.7591 6.24223 17.7491 8.47223V8.52223C17.6891 11.5522 15.9891 14.3422 13.8691 16.5222C12.6691 17.7522 11.3391 18.8422 9.88905 19.7622C9.49905 20.0922 8.92905 20.0922 8.53905 19.7622C6.38905 18.3622 4.48905 16.6022 2.94905 14.5522C1.59905 12.7722 0.829054 10.6322 0.749054 8.40223C0.769054 3.75223 4.58905 0.00222699 9.27905 0.012227ZM9.27905 11.2722C9.98905 11.2722 10.6691 11.0022 11.1691 10.5122C11.6891 10.0022 11.9801 9.32323 11.9801 8.61223C11.9801 7.13223 10.7691 5.94223 9.27905 5.94223C7.78905 5.94223 6.58905 7.13223 6.58905 8.61223C6.58905 10.0732 7.76905 11.2522 9.24905 11.2722H9.27905Z" fill="#299657"/>
</svg>
